{
  "root": "apps/gateway",
  "sourceRoot": "apps/gateway/src",
  "projectType": "application",
  "targets": {
    "build": {
      "executor": "@nrwl/node:build",
      "outputs": ["{options.outputPath}"],
      "options": {
        "outputPath": "dist/apps/gateway",
        "main": "apps/gateway/src/main.ts",
        "tsConfig": "apps/gateway/tsconfig.app.json",
        "assets": ["apps/gateway/src/assets"]
      },
      "configurations": {
        "production": {
          "optimization": true,
          "extractLicenses": true,
          "inspect": false,
          "fileReplacements": [
            {
              "replace": "apps/gateway/src/environments/environment.ts",
              "with": "apps/gateway/src/environments/environment.prod.ts"
            }
          ]
        }
      }
    },
    "serve": {
      "executor": "@nrwl/node:execute",
      "options": {
        "buildTarget": "gateway:build",
        "inspect": true,
        "port": 3450
      }
    },
    "lint": {
      "executor": "@nrwl/linter:eslint",
      "outputs": ["{options.outputFile}"],
      "options": {
        "lintFilePatterns": ["apps/gateway/**/*.ts"]
      }
    },
    "test": {
      "executor": "@nrwl/jest:jest",
      "outputs": ["coverage/apps/gateway"],
      "options": {
        "jestConfig": "apps/gateway/jest.config.js",
        "passWithNoTests": true
      }
    }
  },
  "tags": [],
  "implicitDependencies": [
    "microservices-users",
    "microservices-auth",
    "microservices-rooms",
    "microservices-reservations"
  ]
}
